<?xml version="1.0" encoding="utf-8"?>
<!-- Generator: Adobe Illustrator 24.0.2, SVG Export Plug-In . SVG Version: 6.00 Build 0)  -->
<svg version="1.1" id="Capa_1" xmlns="http://www.w3.org/2000/svg" xmlns:xlink="http://www.w3.org/1999/xlink" x="0px" y="0px"
	 viewBox="0 0 578.8 500" style="enable-background:new 0 0 578.8 500;" xml:space="preserve">
<style type="text/css">
	.st0{fill-rule:evenodd;clip-rule:evenodd;fill:#A99DC6;}
</style>
<path class="st0" d="M86.8,264.5H0L289.4,4l289.4,260.5H492V496H318.4V322.4h-57.9V496H86.8V264.5z M434.1,212.1L289.4,81.9
	L144.7,212.1v226h57.9V264.5h173.6v173.6h57.9V212.1z"/>
</svg>
