<?xml version="1.0" encoding="utf-8"?>
<!-- Generator: Adobe Illustrator 24.0.2, SVG Export Plug-In . SVG Version: 6.00 Build 0)  -->
<svg version="1.1" id="Capa_1" xmlns="http://www.w3.org/2000/svg" xmlns:xlink="http://www.w3.org/1999/xlink" x="0px" y="0px"
	 viewBox="0 0 718.1 179.5" style="enable-background:new 0 0 718.1 179.5;" xml:space="preserve">
<style type="text/css">
	.st0{fill-rule:evenodd;clip-rule:evenodd;fill:#A99DC6;}
</style>
<path class="st0" d="M89.8,0C40.4,0,0,40.4,0,89.8s40.4,89.8,89.8,89.8s89.8-40.4,89.8-89.8S139.1,0,89.8,0z M628.3,0
	c-49.4,0-89.8,40.4-89.8,89.8s40.4,89.8,89.8,89.8c49.4,0,89.8-40.4,89.8-89.8S677.7,0,628.3,0z M269.3,89.8
	C269.3,40.4,309.7,0,359,0s89.8,40.4,89.8,89.8s-40.4,89.8-89.8,89.8S269.3,139.1,269.3,89.8z"/>
</svg>
